{
  "definitions": {},
  "$schema": "http://json-schema.org/draft-07/schema#",
  "$id": "http://example.com/root.json",
  "type": "object",
  "title": "The Root Schema",
  "required": [
    "debtorAccount",
    "instructedAmount",
    "creditorAccount",
    "creditorName",
    "transactionStatus"
  ],
  "properties": {
    "debtorAccount": {
      "$id": "#/properties/debtorAccount",
      "type": "object",
      "title": "The Debtoraccount Schema",
      "required": [
        "iban"
      ],
      "properties": {
        "iban": {
          "$id": "#/properties/debtorAccount/properties/iban",
          "type": "string",
          "title": "The Iban Schema",
          "default": "",
          "examples": [
            "DE54500105173424724776"
          ],
          "pattern": "^(.*)$"
        }
      }
    },
    "instructedAmount": {
      "$id": "#/properties/instructedAmount",
      "type": "object",
      "title": "The Instructedamount Schema",
      "required": [
        "amount"
      ],
      "properties": {
        "amount": {
          "$id": "#/properties/instructedAmount/properties/amount",
          "type": "number",
          "title": "The Amount Schema",
          "default": "",
          "examples": [
            "1"
          ],
          "pattern": "^(.*)$"
        }
      }
    },
    "creditorAccount": {
      "$id": "#/properties/creditorAccount",
      "type": "object",
      "title": "The Creditoraccount Schema",
      "required": [
        "iban"
      ],
      "properties": {
        "iban": {
          "$id": "#/properties/creditorAccount/properties/iban",
          "type": "string",
          "title": "The Iban Schema",
          "default": "",
          "examples": [
            "LU280019400644750000"
          ],
          "pattern": "^(.*)$"
        }
      }
    },
    "creditorAgent": {
      "$id": "#/properties/creditorAgent",
      "type": "string",
      "title": "The Creditoragent Schema",
      "default": "",
      "examples": [
        ""
      ],
      "pattern": "^(.*)$"
    },
    "creditorName": {
      "$id": "#/properties/creditorName",
      "type": "string",
      "title": "The Creditorname Schema",
      "default": "",
      "examples": [
        "creditor_name"
      ],
      "pattern": "^(.*)$"
    },
    "transactionStatus": {
      "$id": "#/properties/transactionStatus",
      "type": "string",
      "title": "The Transactionstatus Schema",
      "default": "",
      "enum": [
        "ACSC", "ACTC", "RCVD", "RJCT"
      ],
      "examples": [
        "RCVD"
      ],
      "pattern": "^(.*)$"
    }
  }
}