{
  "@type": "PaymentInitiationSctJson",
  "batchBookingPreferred": true,
  "debtorAccount": {"iban": "DE40100100103307118608"},
  "payments": [
    {
      "instructedAmount": {"amount": "123.00"},
      "creditorName": "Merchant123",
      "creditorAccount": {"iban": "DE23100120020123456789"}
    },
    {
      "instructedAmount": {"amount": "57.09"},
      "creditorName": "Merchant123",
      "creditorAccount": {"iban": "DE23100120020123456789"}
    }
  ]
}