{
  "@type": "PaymentInitiationSctJson",
  "instructedAmount": {"amount": "123.50"},
  "debtorAccount": {"iban": "DE52500105173911841934"},
  "creditorName": "Merchant123",
  "creditorAccount": {"iban": "DE02100100109307118603"}
}