{
  "definitions": {},
  "$schema": "http://json-schema.org/draft-07/schema#",
  "$id": "http://example.com/root.json",
  "type": "object",
  "title": "The Root Schema",
  "required": [
    "transactionStatus",
    "paymentId"
  ],
  "properties": {
    "transactionStatus": {
      "$id": "#/properties/transactionStatus",
      "type": "string",
      "title": "The Transactionstatus Schema",
      "default": "",
      "enum": [
        "ACSC", "ACTC", "RCVD", "RJCT"
      ],
      "pattern": "^(.*)$"
    },
    "paymentId": {
      "$id": "#/properties/paymentId",
      "type": "string",
      "title": "The Paymentid Schema",
      "default": "",
      "examples": [
        "9eb5bf87-9e1a-4afe-aca1-838f27b6eea2"
      ],
      "pattern": "^(.*)$"
    },
    "_links": {
      "$id": "#/properties/_links",
      "type": "object",
      "title": "The _links Schema",
      "default": null,
      "properties": {
        "self": {
          "$id": "#/properties/_links/properties/self",
          "type": "string",
          "title": "The Self Schema",
          "default": "",
          "examples": [
            "/v1/payments/9eb5bf87-9e1a-4afe-aca1-838f27b6eea2"
          ],
          "pattern": "^(.*)$"
        },
        "status": {
          "$id": "#/properties/_links/properties/status",
          "type": "string",
          "title": "The Status Schema",
          "default": "",
          "examples": [
            "/v1/payments/9eb5bf87-9e1a-4afe-aca1-838f27b6eea2/status"
          ],
          "pattern": "^(.*)$"
        },
        "startAuthorisation": {
          "$id": "#/properties/_links/properties/startAuthorisation",
          "type": "string",
          "title": "The Startauthorisation Schema",
          "default": "",
          "examples": [
            "/v1/payments/9eb5bf87-9e1a-4afe-aca1-838f27b6eea2/authorisations"
          ],
          "pattern": "^(.*)$"
        }
      }
    }
  }
}