{
  "@type": "PaymentInitiationSctJson",
  "batchBookingPreferred": true,
  "debtorAccount": {"iban": "DE40100100103307118608"},
  "requestedExecutionDate": "2019-02-01",
  "payments": [
    {
      "instructedAmount": {"currency": "EUR", "amount": "123.00"},
      "creditorName": "Merchant123",
      "creditorAccount": {"iban": "DE23100120020123456789"},
      "creditorAgent": "HYVEDEMM123",
      "creditorAddress": {"street": "Porzellangasse",
        "buildingNumber": "35",
        "city": "Muenchen",
        "postalCode": "10987",
        "country": "DE"},
      "endToEndIdentification": "E2EID012345678901234567890123456789",
      "remittanceInformationUnstructured": "Ref Number Abonnement 1"
    },
    {
      "instructedAmount": {"currency": "EUR", "amount": "57.09"},
      "creditorName": "Merchant123",
      "creditorAccount": {"iban": "DE23100120020123456789"},
      "creditorAgent": "HYVEDEMM123",
      "creditorAddress": {"street": "Porzellangasse",
        "buildingNumber": "35",
        "city": "Muenchen",
        "postalCode": "10987",
        "country": "DE"},
      "endToEndIdentification": "E2EID012345678901234567890123456789",
      "remittanceInformationUnstructured": "Ref Number Abonnement 2"
    },
    {
      "instructedAmount": {"currency": "EUR", "amount": "123.50"},
      "creditorName": "Merchant123",
      "creditorAccount": {"iban": "DE02100100109307118603"},
      "creditorAgent": "HYVEDEMM123",
      "creditorAddress": {"street": "Porzellangasse",
        "buildingNumber": "35",
        "city": "Muenchen",
        "postalCode": "10987",
        "country": "DE"},
      "endToEndIdentification": "E2EID012345678901234567890123456789",
      "remittanceInformationUnstructured": "Ref Number Merchant"
    }
  ]
}