{
  "access": {
    "transactions": [
      {"iban": "DE89370400440532013111"},
      {"iban": "LU00000000000000000"}
    ]
  },
  "recurringIndicator": true,
  "validUntil": "2020-12-20",
  "frequencyPerDay": "4",
  "combinedServiceIndicator": false
}