{
  "@type": "PaymentInitiationCrossBorderJson",
  "batchBookingPreferred": true,
  "debtorAccount": {"iban": "DE40100100103307118608"},
  "requestedExecutionDate": "2019-02-01",
  "payments": [
    {
      "instructedAmount": {"currency": "EUR", "amount": "123.00"},
      "creditorName": "Merchant123",
      "creditorAccount": {"iban": "DE23100120020123456789"},
      "creditorAddress": {"street": "Porzellangasse",
        "buildingNumber": "35",
        "city": "Muenchen",
        "postalCode": "10987",
        "country": "DE"},
      "remittanceInformationUnstructured": "Ref Number Abonnement 1",
      "chargeBearer": "SLEV"
    },
    {
      "instructedAmount": {"currency": "EUR", "amount": "57.09"},
      "creditorName": "Merchant123",
      "creditorAccount": {"iban": "DE23100120020123456789"},
      "creditorAddress": {"street": "Porzellangasse",
        "buildingNumber": "35",
        "city": "Minusinsk",
        "postalCode": "10987",
        "country": "DE"},
      "remittanceInformationUnstructured": "Ref Number Abonnement 2",
      "chargeBearer": "SLEV"

    },
    {
      "instructedAmount": {"currency": "EUR", "amount": "123.50"},
      "creditorName": "Merchant123",
      "creditorAccount": {"iban": "DE02100100109307118603"},
      "creditorAgent": "HYVEDEMM123",
      "creditorAddress": {"street": "Porzellangasse",
        "buildingNumber": "35",
        "city": "Muenchen",
        "postalCode": "10987",
        "country": "DE"},
      "remittanceInformationUnstructured": "Ref Number Merchant",
      "chargeBearer": "SLEV"
    }
  ]
}