{
  "@type": "PeriodicPaymentInitiationTarget2Json",
  "endToEndIdentification": "E2EID012345678901234567890123456789",
  "instructedAmount": {"currency": "EUR", "amount": "123.5065"},
  "debtorAccount": {"iban": "DE40100100103307118608"},
  "creditorName": "Merchant123",
  "creditorAccount": {"iban": "DE02100100109307118603"},
  "creditorAgent": "HYVEDEMM123",
  "creditorAddress": {"street": "Porzellangasse",
    "buildingNumber": "35",
    "city": "Muenchen",
    "postalCode": "10987",
    "country": "DE"},
  "chargeBearer": "SLEV",
  "remittanceInformationUnstructured": "Ref Number Abonnement",
  "startDate": "2019-01-31",
  "executionRule": "latest",
  "frequency": "Monthly",
  "dayOfExecution": "1"
}