{
  "@type": "PaymentInitiationCrossBorderJson",
  "instructedAmount": {"currency": "EUR", "amount": "123.50"},
  "debtorAccount": {"iban": "DE40100100103307118608"},
  "creditorName": "Merchant123",
  "creditorAccount": {"iban": "DE02100100109307118603"},
  "creditorAgent": "HYVEDEMM123",
  "creditorAddress": {"street": "Porzellangasse",
    "buildingNumber": "35",
    "city": "Muenchen",
    "postalCode": "10987",
    "country": "DE"},
  "remittanceInformationUnstructured": "Ref Number Merchant",
  "chargeBearer": "SLEV",
  "endToEndIdentification": "E2EID012345678901234567890123456789",
  "vasia": "VASIA"
}