{
  "@type": "PaymentInitiationCrossBorderJson",
  "instructedAmount":
  {
    "currency":"EUR",
    "amount":"123.503"
  },
  "debtorAccount": {"iban": "DE52500105173911841934"},
  "creditorName": "Merchant123",
  "creditorAccount": {"iban": "DE02100100109307118603"}
}


