{
  "definitions": {},
  "$schema": "http://json-schema.org/draft-07/schema#",
  "$id": "http://example.com/root.json",
  "type": "object",
  "title": "The Root Schema",
  "required": [
    "transactionAmount"
  ],
  "properties": {
    "_links": {
      "$id": "#/properties/_links",
      "type": "object",
      "title": "The _links Schema"
    },
    "bankTransactionCode": {
      "$id": "#/properties/bankTransactionCode",
      "type": "string",
      "title": "The Banktransactioncode Schema",
      "default": "",
      "examples": [
        "string"
      ],
      "pattern": "^(.*)$"
    },
    "bookingDate": {
      "$id": "#/properties/bookingDate",
      "type": "string",
      "title": "The Bookingdate Schema",
      "default": "",
      "examples": [
        "2018-11-16"
      ],
      "pattern": "^(.*)$"
    },
    "checkId": {
      "$id": "#/properties/checkId",
      "type": "string",
      "title": "The Checkid Schema",
      "default": "",
      "examples": [
        "string"
      ],
      "pattern": "^(.*)$"
    },
    "creditorAccount": {
      "$id": "#/properties/creditorAccount",
      "type": "object",
      "title": "The Creditoraccount Schema"
    },
    "creditorId": {
      "$id": "#/properties/creditorId",
      "type": "string",
      "title": "The Creditorid Schema",
      "default": "",
      "examples": [
        "string"
      ],
      "pattern": "^(.*)$"
    },
    "creditorName": {
      "$id": "#/properties/creditorName",
      "type": "string",
      "title": "The Creditorname Schema",
      "default": "",
      "examples": [
        "string"
      ],
      "pattern": "^(.*)$"
    },
    "debtorAccount": {
      "$id": "#/properties/debtorAccount",
      "type": "object",
      "title": "The Debtoraccount Schema"
    },
    "debtorName": {
      "$id": "#/properties/debtorName",
      "type": "string",
      "title": "The Debtorname Schema",
      "default": "",
      "examples": [
        "string"
      ],
      "pattern": "^(.*)$"
    },
    "endToEndId": {
      "$id": "#/properties/endToEndId",
      "type": "string",
      "title": "The Endtoendid Schema",
      "default": "",
      "examples": [
        "string"
      ],
      "pattern": "^(.*)$"
    },
    "entryReference": {
      "$id": "#/properties/entryReference",
      "type": "string",
      "title": "The Entryreference Schema",
      "default": "",
      "examples": [
        "string"
      ],
      "pattern": "^(.*)$"
    },
    "exchangeRate": {
      "$id": "#/properties/exchangeRate",
      "type": "array",
      "title": "The Exchangerate Schema",
      "items": {
        "$id": "#/properties/exchangeRate/items",
        "type": "object",
        "title": "The Items Schema",
        "required": [
          "currencyFrom",
          "currencyTo",
          "rateDate"
        ],
        "properties": {
          "currencyFrom": {
            "$id": "#/properties/exchangeRate/items/properties/currencyFrom",
            "type": "string",
            "title": "The Currencyfrom Schema",
            "default": "",
            "examples": [
              "string"
            ],
            "pattern": "^(.*)$"
          },
          "currencyTo": {
            "$id": "#/properties/exchangeRate/items/properties/currencyTo",
            "type": "string",
            "title": "The Currencyto Schema",
            "default": "",
            "examples": [
              "string"
            ],
            "pattern": "^(.*)$"
          },
          "rateContract": {
            "$id": "#/properties/exchangeRate/items/properties/rateContract",
            "type": "string",
            "title": "The Ratecontract Schema",
            "default": "",
            "examples": [
              "string"
            ],
            "pattern": "^(.*)$"
          },
          "rateDate": {
            "$id": "#/properties/exchangeRate/items/properties/rateDate",
            "type": "string",
            "title": "The Ratedate Schema",
            "default": "",
            "examples": [
              "2018-11-16"
            ],
            "pattern": "^(.*)$"
          },
          "rateFrom": {
            "$id": "#/properties/exchangeRate/items/properties/rateFrom",
            "type": "string",
            "title": "The Ratefrom Schema",
            "default": "",
            "examples": [
              "string"
            ],
            "pattern": "^(.*)$"
          },
          "rateTo": {
            "$id": "#/properties/exchangeRate/items/properties/rateTo",
            "type": "string",
            "title": "The Rateto Schema",
            "default": "",
            "examples": [
              "string"
            ],
            "pattern": "^(.*)$"
          }
        }
      }
    },
    "mandateId": {
      "$id": "#/properties/mandateId",
      "type": "string",
      "title": "The Mandateid Schema",
      "default": "",
      "examples": [
        "string"
      ],
      "pattern": "^(.*)$"
    },
    "proprietaryBankTransactionCode": {
      "$id": "#/properties/proprietaryBankTransactionCode",
      "type": "string",
      "title": "The Proprietarybanktransactioncode Schema",
      "default": "",
      "examples": [
        "string"
      ],
      "pattern": "^(.*)$"
    },
    "purposeCode": {
      "$id": "#/properties/purposeCode",
      "type": "string",
      "title": "The Purposecode Schema",
      "default": "",
      "enum": [
        "BKDF","BKFE", "BKFM", "BKIP", "BKPP", "CBLK", "CDCB", "CDCD", "CDCS", "CDDP", "CDOC", "CDQC", "ETUP", "FCOL",
        "MTUP", "ACCT", "CASH", "COLL", "CSDB", "DEPT", "INTC", "LIMA", "NETT", "BFWD", "CCIR", "CCPC", "CCPM", "CCSM",
        "CRDS", "CRPR", "CRSP", "CRTL", "EQPT", "EQUS", "EXPT", "EXTD", "FIXI", "FWBC", "FWCC", "FWSB", "FWSC", "MARG",
        "MBSB", "MBSC", "MGCC", "MGSC", "OCCC", "OPBC", "OPCC", "OPSB", "OPSC", "OPTN", "OTCD", "REPO", "RPBC", "RPCC",
        "RPSB", "RPSC", "RVPO", "SBSC", "SCIE", "SCIR", "SCRP", "SHBC", "SHCC", "SHSL", "SLEB", "SLOA", "SWBC", "SWCC",
        "SWPT", "SWSB", "SWSC", "TBAS", "TBBC", "TBCC", "TRCP", "AGRT", "AREN", "BEXP", "BOCE", "COMC", "CPYR", "GDDS",
        "GDSV", "GSCB", "LICF", "MP2B", "POPE", "ROYA", "SCVE", "SERV", "SUBS", "SUPP", "TRAD", "CHAR", "COMT", "MP2P",
        "ECPG", "ECPR", "ECPU", "EPAY", "CLPR", "COMP", "DBTC", "GOVI", "HLRP", "HLST", "INPC", "INPR", "INSC", "INSU",
        "INTE", "LBRI", "LIFI", "LOAN", "LOAR", "PENO", "PPTI", "RELG", "RINP", "TRFD", "FORW", "FXNT", "ADMG", "ADVA",
        "BCDM", "BCFG", "BLDM", "BNET", "CBFF", "CBFR", "CCRD", "CDBL", "CFEE", "CGDD", "CORT", "COST", "CPKC", "DCRD",
        "DSMT", "DVPM", "EDUC", "FACT", "FAND", "FCPM", "FEES", "GOVT", "ICCP", "IDCP", "IHRP", "INSM", "IVPT", "MCDM",
        "MCFG", "MSVC", "NOWS", "OCDM", "OCFG", "OFEE", "OTHR", "PADD", "PTSP", "RCKE", "RCPT", "REBT", "REFU", "RENT",
        "REOD", "RIMB", "RPNT", "RRBN", "RVPM", "SLPI", "SPLT", "STDY", "TBAN", "TBIL", "TCSC", "TELI", "TMPG", "TPRI",
        "TPRP", "TRNC", "TRVC", "WEBI", "ANNI", "CAFI", "CFDI", "CMDT", "DERI", "DIVD", "FREX", "HEDG", "INVS", "PRME",
        "SAVG", "SECU", "SEPI", "TREA", "UNIT", "FNET", "FUTR", "ANTS", "CVCF", "DMEQ", "DNTS", "HLTC", "HLTI", "HSPC",
        "ICRF", "LTCF", "MAFC", "MARF", "MDCS", "VIEW", "CDEP", "SWFP", "SWPP", "SWRS", "SWUF", "ADCS", "AEMP", "ALLW",
        "ALMY", "BBSC", "BECH", "BENE", "BONU", "CCHD", "COMM", "CSLP", "GFRP", "GVEA", "GVEB", "GVEC", "GVED", "GWLT",
        "HREC", "PAYR", "PEFC", "PENS", "PRCP", "RHBS", "SALA", "SSBE", "LBIN", "LCOL", "LFEE", "LMEQ", "LMFI", "LMRK",
        "LREB", "LREV", "LSFL", "ESTX", "FWLV", "GSTX", "HSTX", "INTX", "NITX", "PTXP", "RDTX", "TAXS", "VATX", "WHLD",
        "TAXR", "B112", "BR12", "TLRF", "TLRR", "AIRB", "BUSB", "FERB", "RLWY", "TRPT", "CBTV", "ELEC", "ENRG", "GASB",
        "NWCH", "NWCM", "OTLC", "PHON", "UBIL", "WTER"
      ],
      "pattern": "^(.*)$"
    },
    "remittanceInformationStructured": {
      "$id": "#/properties/remittanceInformationStructured",
      "type": "string",
      "title": "The Remittanceinformationstructured Schema",
      "default": "",
      "examples": [
        "string"
      ],
      "pattern": "^(.*)$"
    },
    "remittanceInformationUnstructured": {
      "$id": "#/properties/remittanceInformationUnstructured",
      "type": "string",
      "title": "The Remittanceinformationunstructured Schema",
      "default": "",
      "examples": [
        "string"
      ],
      "pattern": "^(.*)$"
    },
    "transactionAmount": {
      "$id": "#/properties/transactionAmount",
      "type": "object",
      "title": "The Transactionamount Schema",
      "required": [
        "amount",
        "currency"
      ],
      "properties": {
        "amount": {
          "$id": "#/properties/transactionAmount/properties/amount",
          "type": "number",
          "title": "The Amount Schema",
          "default": "",
          "pattern": "^(.*)$"
        },
        "currency": {
          "$id": "#/properties/transactionAmount/properties/currency",
          "type": "string",
          "title": "The Currency Schema",
          "default": "",
          "examples": [
            "string"
          ],
          "pattern": "^(.*)$"
        }
      }
    },
    "transactionId": {
      "$id": "#/properties/transactionId",
      "type": "string",
      "title": "The Transactionid Schema",
      "default": "",
      "examples": [
        "string"
      ],
      "pattern": "^(.*)$"
    },
    "ultimateCreditor": {
      "$id": "#/properties/ultimateCreditor",
      "type": "string",
      "title": "The Ultimatecreditor Schema",
      "default": "",
      "examples": [
        "string"
      ],
      "pattern": "^(.*)$"
    },
    "ultimateDebtor": {
      "$id": "#/properties/ultimateDebtor",
      "type": "string",
      "title": "The Ultimatedebtor Schema",
      "default": "",
      "examples": [
        "string"
      ],
      "pattern": "^(.*)$"
    },
    "valueDate": {
      "$id": "#/properties/valueDate",
      "type": "string",
      "title": "The Valuedate Schema",
      "default": "",
      "examples": [
        "2018-11-16"
      ],
      "pattern": "^(.*)$"
    }
  }
}