{
  "definitions": {},
  "$schema": "http://json-schema.org/draft-07/schema#",
  "$id": "http://example.com/root.json",
  "type": "object",
  "title": "The Root Schema",
  "required": [
    "currency"
  ],
  "properties": {
    "_links": {
      "$id": "#/properties/_links",
      "type": "object",
      "title": "The _links Schema"
    },
    "balances": {
      "$id": "#/properties/balances",
      "type": "array",
      "title": "The Balances Schema",
      "items": {
        "$id": "#/properties/balances/items",
        "type": "object",
        "title": "The Items Schema",
        "required": [
          "balanceAmount",
          "balanceType",
          "lastChangeDateTime",
          "lastCommittedTransaction",
          "referenceDate"
        ],
        "properties": {
          "balanceAmount": {
            "$id": "#/properties/balances/items/properties/balanceAmount",
            "type": "object",
            "title": "The Balanceamount Schema",
            "required": [
              "amount",
              "currency"
            ],
            "properties": {
              "amount": {
                "$id": "#/properties/balances/items/properties/balanceAmount/properties/amount",
                "type": "string",
                "title": "The Amount Schema",
                "default": "",
                "examples": [
                  "string"
                ],
                "pattern": "^(.*)$"
              },
              "currency": {
                "$id": "#/properties/balances/items/properties/balanceAmount/properties/currency",
                "type": "string",
                "title": "The Currency Schema",
                "default": "",
                "examples": [
                  "string"
                ],
                "pattern": "^(.*)$"
              }
            }
          },
          "balanceType": {
            "$id": "#/properties/balances/items/properties/balanceType",
            "type": "string",
            "title": "The Balancetype Schema",
            "default": "",
            "examples": [
              "closingBooked"
            ],
            "pattern": "^(.*)$"
          },
          "lastChangeDateTime": {
            "$id": "#/properties/balances/items/properties/lastChangeDateTime",
            "type": "string",
            "title": "The Lastchangedatetime Schema",
            "default": "",
            "examples": [
              "2018-11-11T22:22:22.328Z"
            ],
            "pattern": "^(.*)$"
          },
          "lastCommittedTransaction": {
            "$id": "#/properties/balances/items/properties/lastCommittedTransaction",
            "type": "string",
            "title": "The Lastcommittedtransaction Schema",
            "default": "",
            "examples": [
              "string"
            ],
            "pattern": "^(.*)$"
          },
          "referenceDate": {
            "$id": "#/properties/balances/items/properties/referenceDate",
            "type": "string",
            "title": "The Referencedate Schema",
            "default": "",
            "examples": [
              "2018-11-11"
            ],
            "pattern": "^(.*)$"
          }
        }
      }
    },
    "bban": {
      "$id": "#/properties/bban",
      "type": "string",
      "title": "The Bban Schema",
      "default": "",
      "examples": [
        "string"
      ],
      "pattern": "^(.*)$"
    },
    "bic": {
      "$id": "#/properties/bic",
      "type": "string",
      "title": "The Bic Schema",
      "default": "",
      "examples": [
        "string"
      ],
      "pattern": "^(.*)$"
    },
    "cashAccountType": {
      "$id": "#/properties/cashAccountType",
      "type": "string",
      "title": "The Cashaccounttype Schema",
      "default": "",
      "examples": [
        "string"
      ],
      "pattern": "^(.*)$"
    },
    "currency": {
      "$id": "#/properties/currency",
      "type": "string",
      "title": "The Currency Schema",
      "default": "",
      "examples": [
        "string"
      ],
      "pattern": "^(.*)$"
    },
    "details": {
      "$id": "#/properties/details",
      "type": "string",
      "title": "The Details Schema",
      "default": "",
      "examples": [
        "string"
      ],
      "pattern": "^(.*)$"
    },
    "iban": {
      "$id": "#/properties/iban",
      "type": "string",
      "title": "The Iban Schema",
      "default": "",
      "examples": [
        "string"
      ],
      "pattern": "^(.*)$"
    },
    "linkedAccounts": {
      "$id": "#/properties/linkedAccounts",
      "type": "string",
      "title": "The Linkedaccounts Schema",
      "default": "",
      "examples": [
        "string"
      ],
      "pattern": "^(.*)$"
    },
    "msisdn": {
      "$id": "#/properties/msisdn",
      "type": "string",
      "title": "The Msisdn Schema",
      "default": "",
      "examples": [
        "string"
      ],
      "pattern": "^(.*)$"
    },
    "name": {
      "$id": "#/properties/name",
      "type": "string",
      "title": "The Name Schema",
      "default": "",
      "examples": [
        "string"
      ],
      "pattern": "^(.*)$"
    },
    "product": {
      "$id": "#/properties/product",
      "type": "string",
      "title": "The Product Schema",
      "default": "",
      "examples": [
        "string"
      ],
      "pattern": "^(.*)$"
    },
    "resourceId": {
      "$id": "#/properties/resourceId",
      "type": "string",
      "title": "The Resourceid Schema",
      "default": "",
      "examples": [
        "string"
      ],
      "pattern": "^(.*)$"
    },
    "status": {
      "$id": "#/properties/status",
      "type": "string",
      "title": "The Status Schema",
      "default": "",
      "examples": [
        "enabled"
      ],
      "pattern": "^(.*)$"
    },
    "usage": {
      "$id": "#/properties/usage",
      "type": "string",
      "title": "The Usage Schema",
      "default": "",
      "examples": [
        "PRIV"
      ],
      "pattern": "^(.*)$"
    }
  }
}
