{
  "definitions": {},
  "$schema": "http://json-schema.org/draft-07/schema#",
  "$id": "http://example.com/root.json",
  "type": "object",
  "title": "The Root Schema",
  "consentStatus": {
    "$id": "#/properties/consentStatus",
    "type": "string",
    "title": "The Consentstatus Schema",
    "default": "",
    "enum": [
      "received",
      "rejected",
      "valid",
      "revokedByPsu",
      "expired",
      "terminatedByTpp"
    ],
    "pattern": "^(.*)$"
  }
}